{
    "floors":[
        ["kitchen", "living_room", "dining_room", "bedroom"]
    ],
    "livings": ["mother", "cat", "cat", "cat", "cat"],
    "conveyances": ["car", "ski", "bicycle", "bicycle"],
    "sensors": ["wind", "temperature", "husbandry"]
}