{
    "floors":[
        ["living_room", "kitchen", "office", "study", "bedroom", "bathroom", "dining_room"]
    ],
    "livings": ["father"],
    "conveyances": ["car", "ski", "bicycle"],
    "sensors": ["wind", "temperature", "husbandry"]
}