{
    "roomFactory": "rich",
    "deviceFactory": "rich",
    "conveyanceFactory": "rich",
    "floors": [
        [
            "bathroom",
            "kitchen",
            "bedroom",
            "livingroom",
            "studyroom"
        ],
        [
            "bedroom",
            "bedroom",
            "bathroom",
            "livingroom",
            "studyroom"
        ]
    ],
    "actors": [
        {
            "type": "father",
            "behavior": "father",
            "name": "Richie Rich"
        },
        {
            "type": "mother",
            "behavior": "mother",
            "name": "Richie Rich"
        },
        {
            "type": "kid",
            "behavior": "kid",
            "name": "Billy Rich"
        },
        {
            "type": "kid",
            "behavior": "kid",
            "name": "Billietta Rich"
        },
        {
            "type": "kid",
            "behavior": "kid",
            "name": "Daryl Rich"
        },
        {
            "type": "father",
            "behavior": "grandpa",
            "name": "Seymour Rich"
        }
    ],
    "conveyances": [
        "car",
        "car",
        "bike",
        "bike",
        "skis"
    ]
}